1,完成自己“简陋”寻路算法重构，写一个迪杰斯特拉算法js版本.
2，学习微信并完成一个自己的系统.
=================================================
2014/8/29
am 9:00 today work start
am 10：00～10：30 休息
am 10：30～12：15 working go on
pm 12：30～pm 2：00 午饭休息
pm  2：00～pm  4：00 working go on
pm  4：00～pm  4:30  休息
pm  4：30～pm   18：10working go on

pm 18：10 today work end

今天主要思考如何构思；发现加上bootstrap后；那个jquery.subwayMap插件会随着web页面响应模式“标点”偏离位置，影响外观，原理没有意料到，明日，先解决一下这个：看看能否响应式后再次加载$(".subway-map").subwayMap({ debug: false });如果不行就先忽略或者使用table定位了。。
=====================================================
2014/8/30
未来形成作品的构想：图点数定死，每个边权重可以自己设定（滑动轴形式），起点可以自己设定，点击生成：矩阵列表最优路径和动画效果。感觉这个还是有些实际用处的，当然是双向图。
今天先分解一下，为了写成模块和最终效果，我先把自动生成矩阵就是原来里面的那个矩阵数组先完成了吧
2014/8/31
选择使用requirejs作为模块化组织代码的库；改写2014/8/30为amd格式；改写完后下面在看下grunt这个node工具
2014/9/1
初步整理和重构
2014/9/2
没有做
2014/9/3
把这几天做的整理集成到了3.html中；动画坐标还有些问题
2014/9/4
“广度”遍历可以再重构一下，写成一个完整类的模式；暂停一下这个，看下dijkstra能不能自己写一下出来



